Level 1 Data Visualization: Plot the mtcars Dataset
…
#mtcars.viz <- mtcars %>%
  # Optionally, rename variables for clarity
mtcars.viz %>% rename (miles_per_g = mpg,
                       cylinders = cyl,
                       displacement = disp,
                       horsepower = hp,
                       rear_axle_ratio = drat,
                       weight = wt,
                       mile_time = qsec,
                       engine = vs,
                       transmission = am)

# A tibble: 32 × 11
   miles_per_g cylinders displacement horsepower rear_axle_ratio weight
         <dbl>     <dbl>        <dbl>      <dbl>           <dbl>  <dbl>
 1        21           6         160         110            3.9    2.62
 2        21           6         160         110            3.9    2.88
 3        22.8         4         108          93            3.85   2.32
 4        21.4         6         258         110            3.08   3.22
 5        18.7         8         360         175            3.15   3.44
 6        18.1         6         225         105            2.76   3.46
 7        14.3         8         360         245            3.21   3.57
 8        24.4         4         147.         62            3.69   3.19
 9        22.8         4         141.         95            3.92   3.15
10        19.2         6         168.        123            3.92   3.44
# ℹ 22 more rows
# ℹ 5 more variables: mile_time <dbl>, engine <dbl>, transmission <dbl>,
#   gear <dbl>, carb <dbl>
…
Perhaps we can use barplot. The point is to reorder classes by frequency from lowest and highest.

What additional information is required to produce this plot? What layers or aesthetics would you need to add to the plot to include this information?

#| label: plot6-stacked-barplot
#| fig-cap: "Figure 6: Stacked barplot of frequency by weight class categorized by automatic or manual transmission type"
#| echo: TRUE
#| fig-alt: "Magic beans can fly."
#| outwidth: 40%

library(tidyverse)
view (mtcars.viz)
mtcars.viz %>% mutate (auto_or_man = ifelse (transmission == "1", "Man.", "Auto"))

# A tibble: 32 × 12
   miles_per_g cylinders displacement horsepower rear_axle_ratio weight
         <dbl>     <dbl>        <dbl>      <dbl>           <dbl>  <dbl>
 1        21           6         160         110            3.9    2.62
 2        21           6         160         110            3.9    2.88
 3        22.8         4         108          93            3.85   2.32
 4        21.4         6         258         110            3.08   3.22
 5        18.7         8         360         175            3.15   3.44
 6        18.1         6         225         105            2.76   3.46
 7        14.3         8         360         245            3.21   3.57
 8        24.4         4         147.         62            3.69   3.19
 9        22.8         4         141.         95            3.92   3.15
10        19.2         6         168.        123            3.92   3.44
# ℹ 22 more rows
# ℹ 6 more variables: mile_time <dbl>, engine <fct>, transmission <fct>,
#   gear <dbl>, carb <dbl>, auto_or_man <chr>
…
